{
  "templates": [
    {
      "id": "Energyconsumption-35",
      "label": {
        "en": "Real Estate primary function",
        "sv": "Fastighet primär funktion"
      },
      "property": "https://brickschema.org/schema/Brick#buildingPrimaryFunction",
      "nodetype": "ONLY_LITERAL",
      "type": "choice",
      "cardinality": {
        "min": 1,
        "max": 1
      },
      "choices": [
        {
          "value": "Residential",
          "label": {
            "en": "Residential",
            "sv": "Bostäder"
          }
        }
      ]
    },
    {
      "id": "Energyconsumption-31",
      "label": {
        "en": "Identifier",
        "sv": "Identifierare"
      },
      "property": "http://purl.org/dc/terms/identifier",
      "nodetype": "ONLY_LITERAL",
      "type": "text",
      "cardinality": {
        "min": 1,
        "max": 1
      }
    },
    {
      "id": "Energyconsumption-50",
      "label": {
        "en": "Is metered by",
        "sv": "Mäts av"
      },
      "property": "https://brickschema.org/schema/Brick#isMeteredBy",
      "nodetype": "URI",
      "type": "choice",
      "cardinality": {
        "min": 1
      },
      "constraints": {
        "https://brickschema.org/schema/Brick#isMeteredBy": "https://brickschema.org/schema/Brick#Building_Electrical_Meter, https://brickschema.org/schema/Brick#Thermal_Power_Meter, https://brickschema.org/schema/Brick#Building_Hot_Water_Meter, https://brickschema.org/schema/Brick#Building_Chilled_Water_Meter"
      }
    },
    {
      "id": "Energyconsumption-63",
      "label": {
        "en": "Longitude",
        "sv": "Longitud"
      },
      "property": "http://www.w3.org/2003/01/geo/wgs84_pos#long",
      "nodetype": "DATATYPE_LITERAL",
      "type": "text",
      "cardinality": {
        "pref": 1,
        "max": 1
      },
      "datatype": "http://www.w3.org/2001/XMLSchema#decimal"
    },
    {
      "id": "Energyconsumption-62",
      "label": {
        "en": "Latitude",
        "sv": "Latitud"
      },
      "property": "http://www.w3.org/2003/01/geo/wgs84_pos#lat",
      "nodetype": "DATATYPE_LITERAL",
      "type": "text",
      "cardinality": {
        "pref": 1,
        "max": 1
      },
      "datatype": "http://www.w3.org/2001/XMLSchema#decimal"
    },
    {
      "id": "Energyconsumption-65",
      "label": {
        "en": "Coordinates",
        "sv": "Koordinater"
      },
      "items": [
        "Energyconsumption-63",
        "Energyconsumption-62"
      ],
      "nodetype": "BLANK",
      "type": "group",
      "constraints": {
        "http://www.w3.org/1999/02/22-rdf-syntax-ns#type": "http://www.w3.org/2003/01/geo/wgs84_pos#Point"
      },
      "styles": [
        "card"
      ],
      "property": "http://www.w3.org/ns/locn#geometry",
      "cardinality": {
        "pref": 1,
        "max": 1
      }
    },
    {
      "id": "Energyconsumption-32",
      "label": {
        "sv": "Fastighet",
        "en": "Real Estate"
      },
      "purpose": {
        "en": "A real estate defined with properties and classes from Brick Schema and Real Estate Core"
      },
      "items": [
        "Energyconsumption-35",
        "Energyconsumption-31",
        "Energyconsumption-50",
        "Energyconsumption-65"
      ],
      "nodetype": "URI",
      "type": "group",
      "constraints": {
        "http://www.w3.org/1999/02/22-rdf-syntax-ns#type": "https://w3id.org/rec/core/RealEstate"
      }
    },
    {
      "id": "Energyconsumption-47",
      "label": {
        "en": "Timestamp",
        "sv": "Tidsstämpel"
      },
      "property": "https://brickschema.org/schema/Brick#timestamp",
      "nodetype": "DATATYPE_LITERAL",
      "type": "text",
      "cardinality": {
        "pref": 1,
        "max": 1
      },
      "datatype": "http://www.w3.org/2001/XMLSchema#dateTime"
    },
    {
      "id": "Energyconsumption-25",
      "label": {
        "en": "Numeric value",
        "sv": "Numeriskt värde"
      },
      "property": "https://brickschema.org/schema/Brick#value",
      "nodetype": "DATATYPE_LITERAL",
      "type": "text",
      "cardinality": {
        "pref": 1,
        "max": 1
      },
      "datatype": "http://www.w3.org/2001/XMLSchema#decimal"
    },
    {
      "id": "Energyconsumption-27",
      "label": {
        "sv": "Enhet",
        "en": "Unit "
      },
      "property": "http://qudt.org/schema/qudt/hasUnit",
      "nodetype": "ONLY_LITERAL",
      "type": "choice",
      "cardinality": {
        "pref": 1,
        "max": 1
      },
      "choices": [
        {
          "value": "http://qudt.org/vocab/unit/KiloW",
          "label": {
            "en": "Kilowatt",
            "sv": "Kilowatt"
          },
          "description": {
            "en": "The kilowatt is a derived unit of power in the International System of Units (SI),  The unit, defined as 1,000 joule per second, measures the rate of energy conversion or transfer.",
            "sv": "Kilowatt är en härledd enhet för effekt i det internationella enhetssystemet (SI). Enheten, som definieras som 1 000 joule per sekund, mäter hastigheten för energiomvandling eller -överföring."
          }
        },
        {
          "value": "https://qudt.org/2.1/vocab/unit/KiloW-HR",
          "label": {
            "en": "Kilowatt hour",
            "sv": "Kilowatt timme"
          },
          "description": {
            "en": "The kilowatt hour, or kilowatt-hour, (kW h or kWh) is a unit of energy equal to 1000 watt hours or 3.6 megajoules. For constant power, energy in watt hours is the product of power in watts and time in hours. The kilowatt hour is most commonly known as a billing unit for energy delivered to consumers by electric utilities.",
            "sv": "Kilowattimme eller kilowattimme (kW h eller kWh) är en energienhet som motsvarar 1000 wattimmar eller 3,6 megajoule. Vid konstant effekt är energin i wattimmar produkten av effekten i watt och tiden i timmar. Kilowattimmar är mest känt som en faktureringsenhet för energi som levereras till konsumenter av elbolag."
          }
        },
        {
          "value": "http://qudt.org/vocab/unit/M3",
          "label": {
            "en": "M3"
          },
          "description": {
            "en": "Cubic meter",
            "sv": "Kubikmeter"
          }
        }
      ]
    },
    {
      "id": "Energyconsumption-48",
      "label": {
        "en": "Last known value",
        "sv": "Senast kända värde"
      },
      "items": [
        "Energyconsumption-47",
        "Energyconsumption-25",
        "Energyconsumption-27"
      ],
      "nodetype": "URI",
      "type": "group",
      "constraints": {
        "http://www.w3.org/1999/02/22-rdf-syntax-ns#type": "https://brickschema.org/schema/BrickShape#LastKnownValueShape"
      },
      "styles": [
        "card"
      ],
      "property": "https://brickschema.org/schema/Brick#lastKnownValue",
      "cardinality": {
        "pref": 1
      }
    },
    {
      "id": "Energyconsumption-53",
      "label": {
        "en": "Has location",
        "sv": "Har plats"
      },
      "purpose": {
        "en": "Relation between the main meter and the building"
      },
      "property": "https://brickschema.org/schema/Brick#hasLocation",
      "nodetype": "URI",
      "type": "choice",
      "cardinality": {
        "pref": 1,
        "max": 1
      },
      "constraints": {
        "http://www.w3.org/1999/02/22-rdf-syntax-ns#type": "https://brickschema.org/schema/Brick#Building"
      }
    },
    {
      "id": "Energyconsumption-28",
      "label": {
        "en": "Main meter",
        "sv": "Huvudmätare"
      },
      "items": [
        "Energyconsumption-31",
        "Energyconsumption-48",
        "Energyconsumption-53"
      ],
      "nodetype": "URI",
      "type": "group",
      "constraints": {
        "http://www.w3.org/1999/02/22-rdf-syntax-ns#type": "https://brickschema.org/schema/Brick#Building_Electrical_Meter"
      }
    },
    {
      "id": "Energyconsumption-73",
      "label": {
        "en": "Building thermal power meter ",
        "sv": "Fjärrvärme mätare"
      },
      "items": [
        "Energyconsumption-31",
        "Energyconsumption-48",
        "Energyconsumption-53"
      ],
      "nodetype": "URI",
      "type": "group",
      "constraints": {
        "http://www.w3.org/1999/02/22-rdf-syntax-ns#type": "https://brickschema.org/schema/Brick#Thermal_Power_Meter"
      }
    },
    {
      "id": "Energyconsumption-74",
      "label": {
        "en": "Building hot water meter",
        "sv": "Varmvatten mätare"
      },
      "items": [
        "Energyconsumption-31",
        "Energyconsumption-48",
        "Energyconsumption-53"
      ],
      "nodetype": "URI",
      "type": "group",
      "constraints": {
        "http://www.w3.org/1999/02/22-rdf-syntax-ns#type": "https://brickschema.org/schema/Brick#Building_Hot_Water_Meter"
      }
    },
    {
      "id": "Energyconsumption-75",
      "label": {
        "en": "Building Chilled Water Meter",
        "sv": "Kallvatten mätare"
      },
      "description": {
        "en": "A meter that measures the usage or consumption of chilled water of a whole building",
        "sv": "En mätare som mäter användningen eller förbrukningen av kylt vatten i en hel byggnad"
      },
      "items": [
        "Energyconsumption-31",
        "Energyconsumption-48"
      ],
      "nodetype": "URI",
      "type": "group",
      "constraints": {
        "http://www.w3.org/1999/02/22-rdf-syntax-ns#type": "https://brickschema.org/schema/Brick#Building_Chilled_Water_Meter"
      }
    }
  ],
  "namespaces": {}
}